[
  {
    "habitName": "Meditate",
    "months": [
      {
        "month": "January",
        "year": 2018,
        "days": [
          {
            "day": 1,
            "completed": true          },
          {
            "day": 2,
            "completed": false
          },
          {
            "day": 3,
            "completed": true
          },
          {
            "day": 4,
            "completed": true
          },
          {
            "day": 5,
            "completed": true
          },
          {
            "day": 6,
            "completed": true
          },
          {
            "day": 7,
            "completed": true
          },
          {
            "day": 8,
            "completed": true
          },
          {
            "day": 9,
            "completed": false
          },
          {
            "day": 10,
            "completed": true
          },
          {
            "day": 11,
            "completed": true
          },
          {
            "day": 12,
            "completed": false
          },
          {
            "day": 13,
            "completed": true
          },
          {
            "day": 14,
            "completed": true
          },
          {
            "day": 15,
            "completed": false
          },
          {
            "day": 16,
            "completed": true
          },
          {
            "day": 17,
            "completed": true
          },
          {
            "day": 18,
            "completed": true
          },
          {
            "day": 19,
            "completed": true
          },
          {
            "day": 20,
            "completed": true
          },
          {
            "day": 21,
            "completed": true
          },
          {
            "day": 22,
            "completed": false
          },
          {
            "day": 23,
            "completed": false
          },
          {
            "day": 24,
            "completed": false
          },
          {
            "day": 25,
            "completed": false
          },
          {
            "day": 26,
            "completed": false
          },
          {
            "day": 27,
            "completed": false
          },
          {
            "day": 28,
            "completed": false
          },
          {
            "day": 29,
            "completed": false
          },
          {
            "day": 30,
            "completed": false
          },
          {
            "day": 31,
            "completed": false
          }
        ]
      },
      {
        "month": "February",
        "year": 2018,
        "days": [
          {
            "day": 1,
            "completed": true          }
        ]
      },
      {
        "month": "March",
        "year": 2018,
        "days": [
          {
            "day": 1,
            "completed": true          }
        ]
      }
    ]
  },
  {
    "habitName": "Exercise",
    "months": [
      {
        "month": "January",
        "year": 2018,
        "days": [
          {
            "day": 1,
            "completed": true
          },
          {
            "day": 2,
            "completed": false
          },
          {
            "day": 3,
            "completed": true
          },
          {
            "day": 4,
            "completed": true
          },
          {
            "day": 5,
            "completed": true
          },
          {
            "day": 6,
            "completed": true
          },
          {
            "day": 7,
            "completed": true
          },
          {
            "day": 8,
            "completed": true
          },
          {
            "day": 9,
            "completed": false
          },
          {
            "day": 10,
            "completed": true
          },
          {
            "day": 11,
            "completed": true
          },
          {
            "day": 12,
            "completed": false
          },
          {
            "day": 13,
            "completed": true
          },
          {
            "day": 14,
            "completed": true
          },
          {
            "day": 15,
            "completed": false
          },
          {
            "day": 16,
            "completed": true
          },
          {
            "day": 17,
            "completed": true
          },
          {
            "day": 18,
            "completed": true
          },
          {
            "day": 19,
            "completed": true
          },
          {
            "day": 20,
            "completed": true
          },
          {
            "day": 21,
            "completed": true
          },
          {
            "day": 22,
            "completed": false
          },
          {
            "day": 23,
            "completed": false
          },
          {
            "day": 24,
            "completed": false
          },
          {
            "day": 25,
            "completed": false
          },
          {
            "day": 26,
            "completed": false
          },
          {
            "day": 27,
            "completed": false
          },
          {
            "day": 28,
            "completed": false
          },
          {
            "day": 29,
            "completed": false
          },
          {
            "day": 30,
            "completed": false
          },
          {
            "day": 31,
            "completed": false
          }
        ]
      },
      {
        "month": "February",
        "year": 2018,
        "days": [
          {
            "day": 1,
            "completed": true
          }
        ]
      },
      {
        "month": "March",
        "year": 2018,
        "days": [
          {
            "day": 1,
            "completed": true
          }
        ]
      }
    ]
  },
  {
    "habitName": "Read",
    "months": [
      {
        "month": "January",
        "year": 2018,
        "days": [
          {
            "day": 1,
            "completed": true
          },
          {
            "day": 2,
            "completed": false
          },
          {
            "day": 3,
            "completed": true
          },
          {
            "day": 4,
            "completed": true
          },
          {
            "day": 5,
            "completed": true
          },
          {
            "day": 6,
            "completed": true
          },
          {
            "day": 7,
            "completed": true
          },
          {
            "day": 8,
            "completed": true
          },
          {
            "day": 9,
            "completed": false
          },
          {
            "day": 10,
            "completed": true
          },
          {
            "day": 11,
            "completed": true
          },
          {
            "day": 12,
            "completed": false
          },
          {
            "day": 13,
            "completed": true
          },
          {
            "day": 14,
            "completed": true
          },
          {
            "day": 15,
            "completed": false
          },
          {
            "day": 16,
            "completed": true
          },
          {
            "day": 17,
            "completed": true
          },
          {
            "day": 18,
            "completed": true
          },
          {
            "day": 19,
            "completed": true
          },
          {
            "day": 20,
            "completed": true
          },
          {
            "day": 21,
            "completed": true
          },
          {
            "day": 22,
            "completed": false
          },
          {
            "day": 23,
            "completed": false
          },
          {
            "day": 24,
            "completed": false
          },
          {
            "day": 25,
            "completed": false
          },
          {
            "day": 26,
            "completed": false
          },
          {
            "day": 27,
            "completed": false
          },
          {
            "day": 28,
            "completed": false
          },
          {
            "day": 29,
            "completed": false
          },
          {
            "day": 30,
            "completed": false
          },
          {
            "day": 31,
            "completed": false
          }
        ]
      },
      {
        "month": "February",
        "year": 2018,
        "days": [
          {
            "day": 1,
            "completed": true
          }
        ]
      },
      {
        "month": "March",
        "year": 2018,
        "days": [
          {
            "day": 1,
            "completed": true
          }
        ]
      }
    ]
  }
]
